{
    "prepare_queue": {
        "installed": [],
        "uninstalled": []
    },
    "config_munge": {
        "files": {
            "config.xml": {
                "parents": {
                    "/*": [
                        {
                            "xml": "<feature name=\"Keyboard\"><param name=\"ios-package\" onload=\"true\" value=\"IonicKeyboard\" /></feature>",
                            "count": 1
                        },
                        {
                            "xml": "<feature name=\"Console\"><param name=\"ios-package\" value=\"CDVLogger\" /></feature>",
                            "count": 1
                        },
                        {
                            "xml": "<feature name=\"Device\"><param name=\"ios-package\" value=\"CDVDevice\" /></feature>",
                            "count": 1
                        },
                        {
                            "xml": "<feature name=\"SQLitePlugin\"><param name=\"ios-package\" value=\"SQLitePlugin\" /></feature>",
                            "count": 1
                        },
                        {
                            "xml": "<feature name=\"SplashScreen\"><param name=\"ios-package\" value=\"CDVSplashScreen\" /><param name=\"onload\" value=\"true\" /></feature>",
                            "count": 1
                        },
                        {
                            "xml": "<feature name=\"NetworkStatus\"><param name=\"ios-package\" value=\"CDVConnection\" /></feature>",
                            "count": 1
                        },
                        {
                            "xml": "<feature name=\"StatusBar\"><param name=\"ios-package\" value=\"CDVStatusBar\" /><param name=\"onload\" value=\"true\" /></feature>",
                            "count": 1
                        },
                        {
                            "xml": "<preference name=\"StatusBarOverlaysWebView\" value=\"true\" />",
                            "count": 1
                        },
                        {
                            "xml": "<preference name=\"StatusBarStyle\" value=\"lightcontent\" />",
                            "count": 1
                        },
                        {
                            "xml": "<feature name=\"InAppBrowser\"><param name=\"ios-package\" value=\"CDVInAppBrowser\" /></feature>",
                            "count": 1
                        },
                        {
                            "xml": "<feature name=\"Notification\"><param name=\"ios-package\" value=\"CDVNotification\" /></feature>",
                            "count": 1
                        }
                    ]
                }
            },
            "framework": {
                "parents": {
                    "libsqlite3.dylib": [
                        {
                            "xml": "false",
                            "count": 1
                        }
                    ],
                    "CoreGraphics.framework": [
                        {
                            "xml": "false",
                            "count": 2
                        },
                        {
                            "xml": false,
                            "count": 1
                        }
                    ],
                    "SystemConfiguration.framework": [
                        {
                            "xml": "true",
                            "count": 1
                        }
                    ],
                    "AudioToolbox.framework": [
                        {
                            "xml": true,
                            "count": 1
                        }
                    ]
                }
            }
        }
    },
    "installed_plugins": {
        "com.ionic.keyboard": {
            "PACKAGE_NAME": "com.ionicframework.encuesta475316"
        },
        "org.apache.cordova.console": {
            "PACKAGE_NAME": "com.ionicframework.encuesta475316"
        },
        "org.apache.cordova.device": {
            "PACKAGE_NAME": "com.ionicframework.encuesta475316"
        },
        "com.brodysoft.sqlitePlugin": {
            "PACKAGE_NAME": "com.ionicframework.encuesta475316"
        },
        "org.apache.cordova.splashscreen": {
            "PACKAGE_NAME": "com.3codegeeks.test1"
        },
        "org.apache.cordova.network-information": {
            "PACKAGE_NAME": "com.franchiseinnovators.app"
        },
        "org.apache.cordova.statusbar": {
            "PACKAGE_NAME": "com.franchiseinnovators.app"
        },
        "org.apache.cordova.inappbrowser": {
            "PACKAGE_NAME": "com.franchiseinnovators.app"
        },
        "org.apache.cordova.dialogs": {
            "PACKAGE_NAME": "com.franchiseinnovators.app"
        }
    },
    "dependent_plugins": {}
}