[{
  "id": 1,
  "text": "In your background, from a blue collar to white collar, what has been your socio-economic level?",
  "type": "range",
  "options":[
    "Construction worker",
    "An educator"
    ]
},
{
  "id": 2,
  "text": "As a franchise owner, would you prefer to work with one gender or does it matter?",
  "type": "select",
  "options": [
    "Men",
    "Women",
    "Either"
    ]
},
{
  "id": 3,
  "text": "Are you looking to work primarily with?",
  "type": "select",
  "options": [
    "Kids",
    "Teenagers",
    "Young adults",
    "Adults",
    "Older people",
    "All ages"
    ]
},
{
  "id": 4,
  "text": "As the owner of a franchise, do you consider yourself as a patient or impatient person?",
  "type": "range",
  "options":[
    "Impatient",
    "Patient"
    ]
},
{
  "id": 5,
  "text": "Would you like to work primarily with your hands or mind?",
  "type": "select",
  "options": [
    "Hands",
    "Mind",
    "Both"
    ]
},
{
  "id": 6,
  "text": "To what degree have you had management experience and training",
  "type": "range",
  "options":[
    "None",
    "Extensive"
    ]
},
{
  "id": 7,
  "text": "Do you wish to be 'on location' at your franchise most of the time?",
  "type": "range",
  "options":[
    "Not at all",
    "All the time"
    ]
},
{
  "id": 8,
  "text": "How committed are you to grow your franchise in sales?",
  "type": "range",
  "options":[
    "Not very",
    "Extremely"
    ]
},
{
  "id": 9,
  "text": "Are you able to follow the exact directions of the franchisor or are you very independent and like to lead your own way",
  "type": "range",
  "options":[
    "Independent",
    "Follows directions"
    ]
},
{
  "id": 10,
  "text": "How much interest do you have in expanding your franchise to more locations?",
  "type": "range",
  "options":[
    "Not much",
    "A lot"
    ]
}
]